Linden Lab would like to acknowledge contributions from the
following residents. The Second Life resident name is given below,
along with the issue identifiers to which they have contributed.

45ms Zhong
Able Whitman
	VWR-650
	VWR-1460
	VWR-1691
	VWR-1735
	VWR-1813
Adam Marker
	VWR-2755
Adeon Writer
	MAINT-1211
Aeonix Aeon
Agathos Frascati
	CT-246
	CT-317
	CT-352
Ai Austin
Aiko Ying
Aimee Trescothick
	SNOW-227
	SNOW-570
	SNOW-572
	SNOW-575
	STORM-1315
	VWR-3321
	VWR-3336
	VWR-3903
	VWR-4083
	VWR-4106
	VWR-5308
	VWR-6348
	VWR-6358
	VWR-6360
	VWR-6432
	VWR-6550
	VWR-6583
	VWR-6482
	VWR-6918
	VWR-7109
	VWR-7383
	VWR-7800
	VWR-8008
	VWR-8341
	VWR-8430
	VWR-8482
	VWR-9255
	VWR-10717
	VWR-10990
	VWR-11100
	VWR-11111
	VWR-11844
	VWR-12631
	VWR-12696
	VWR-12748
	VWR-13221
	VWR-14087
	VWR-14267
	VWR-14278
	VWR-14711
	VWR-14712
	VWR-15454
Alejandro Rosenthal
	VWR-1184
Aleric Inglewood
	OPEN-38
	SNOW-240
	SNOW-522
	SNOW-626
	SNOW-756
	SNOW-764
	SNOW-800
	VWR-10001
	VWR-10579
	VWR-10759
	VWR-10837
	VWR-12691
	VWR-12984
	VWR-13040
	VWR-13996
	VWR-14426
	VWR-24247
	VWR-25654
	VWR-24251
	VWR-24252
	VWR-24254
	VWR-24261
	VWR-24315
	VWR-24317
	VWR-24320
	VWR-24321
	VWR-24337
 	VWR-24354
	VWR-24366
	VWR-24519
	VWR-24520
	SNOW-84
	SNOW-477
	SNOW-744
	SNOW-766
	STORM-163
	STORM-955
	STORM-960
	STORM-1793
Ales Beaumont
	VWR-9352
	SNOW-240
Alexandrea Fride
    STORM-255
	STORM-960
	STORM-1459
Alissa Sabre
	VWR-81
	VWR-83
	VWR-109
	VWR-157
	VWR-171
	VWR-177
	VWR-213
	VWR-250
	VWR-251
	VWR-286
	VWR-414
	VWR-415
	VWR-459
	VWR-606
	VWR-652
	VWR-738
	VWR-1109
	VWR-1351
	VWR-1353
	VWR-1410
	VWR-1843
	VWR-2116
	VWR-2826
	VWR-3290
	VWR-3410
	VWR-3857
	VWR-4010
	VWR-5575
	VWR-5717
	VWR-5929
	VWR-6384
	VWR-6385
	VWR-6386
	VWR-6430
	VWR-6858
	VWR-6668
	VWR-7086
	VWR-7087
	VWR-7153
	VWR-7168
	VWR-9190
	VWR-10728
	VWR-11172
	VWR-12569
	VWR-12617
	VWR-12620
	VWR-12789
	SNOW-322
    STORM-1723
Alliez Mysterio
Angus Boyd
	VWR-592
Ann Congrejo
	CT-193
Annie Milestone
Annika Genezzia
Ansariel Hiller
	STORM-1101
	VWR-25480
	VWR-26150
	STORM-1685
	STORM-1713
	STORM-1899
	STORM-1932
	STORM-1933
	MAINT-2368
	STORM-1931
	MAINT-2773
	STORM-2011
	MAINT-3187
	BUG-3764
	STORM-1984
	STORM-1979
	STORM-2083
	MAINT-5533
	STORM-2094
	MAINT-5756
	MAINT-4677
	MAINT-6300
	MAINT-6397
	MAINT-6432
	MAINT-6513
	MAINT-6514
	MAINT-6552
	STORM-2133
	MAINT-6511
	MAINT-6612
	MAINT-6637
	MAINT-6636
	MAINT-6744
	MAINT-6752
	MAINT-6773
	MAINT-6906
	MAINT-6911
	STORM-2140
	MAINT-6912
	MAINT-6929
	STORM-2141
	MAINT-6953
	MAINT-7028
	MAINT-7059
	MAINT-6519
	MAINT-7899
	STORM-2105
	STORM-2151
	MAINT-6917
	MAINT-8085
	MAINT-8723
	SL-10385
	SL-10891
Aralara Rajal
Arare Chantilly
	CHUIBUG-191
Ardy Lay
	STORM-859
	VWR-19499
	VWR-24917
Argent Stonecutter
	VWR-68
ArminWeatherHax
	STORM-1532
Armin Weatherwax
	VWR-8436
ArminasX Saiman
Arya Braveheart
Asaeda Meltingdots
Asturkon Jua
Asuka Neely
	VWR-3434
	VWR-8179
Aura Dirval
Avallyn Oakleaf
Avatar Quinzet
BabyA Littlething
Bacchus Ireto
Balp Allen
	VWR-4157
Bazaar
Be Holder
	SNOW-322
	SNOW-397
Beansy Twine
Benja Kepler
	VWR-746
Benjamin Bigdipper
Beth Walcher
Bezilon Kasei
Biancaluce Robbiani
	CT-225
	CT-226
	CT-227
	CT-228
	CT-229
	CT-230
	CT-231
	CT-321
	CT-352
Bill Walach
Blakar Ogre
	VWR-418
	VWR-881
	VWR-983
	VWR-1612
	VWR-1613
	VWR-2164
blino Nakamura
	VWR-17
Blitzckreed Levenque
Borg Capalini
Boroondas Gupte
	OPEN-29
	OPEN-39
	OPEN-54
	OPEN-99
	SNOW-278
	SNOW-503
	SNOW-510
	SNOW-527
	SNOW-610
	SNOW-624
	SNOW-737
	STORM-318
	STORM-1182
	VWR-233
	VWR-20583
	VWR-25654
	VWR-20891
	VWR-23455
	VWR-24487
	VWR-26066
	VWR-26458
	WEB-262
Bryn Oh
Buckaroo Mu
Bulli Schumann
	CT-218
	CT-219
	CT-220
	CT-221
	CT-222
	CT-223
	CT-224
	CT-319
	CT-350
	CT-352
bushing Spatula
	VWR-119
	VWR-424
blakopal Galicia
Callipygian Christensen
Cap Carver
Carjay McGinnis
	VWR-3737
	VWR-4070
	VWR-4212
	VWR-6154
	VWR-9400
	VWR-9620
Carla Broek
Carr Arbenlow
Catherine Pfeffer
	VWR-1282
	VWR-8624
	VWR-10854
Cathy Foil
Cayu Cluny
Celierra Darling
	VWR-1274
	VWR-6975
Chantal Harvey
Charles Courtois
Charlie Sazaland
Chaser Zaks
    BUG-225599
    BUG-227485
Cherry Cheevers
ChickyBabes Zuzu
Christopher  Organiser
Ciaran Laval
Cinder Roxley
    BUG-2326
    BUG-3863
    BUG-8786
    OPEN-185
    OPEN-282
    OPEN-292
    OPEN-297
    STORM-1703
    STORM-1948
    STORM-1831
    STORM-1888
    STORM-1958
    STORM-1952
    STORM-1951
    STORM-2035
    STORM-2036
    STORM-2037
    STORM-2053
    STORM-2113
    STORM-2116
    STORM-2127
    STORM-2144
    SL-3404
Clara Young
Coaldust Numbers
    VWR-1095
Colpo Wexler
Corinne Helendale
Corro Moseley
Coughdrop Littlething
Cron Stardust
	VWR-10579
	VWR-25120
	STORM-1075
	STORM-1919
	STORM-1920
	OPEN-209
	STORM-2017
Cypren Christenson
	STORM-417
Dante Tucker
Dale Glass
	VWR-120
	VWR-560
	VWR-2502
	VWR-1358
	VWR-2041
Darien Caldwell
	SH-3055
Dartagan Shepherd
Debs Regent
Decro Schmooz
Denim Kamachi
DiJodi Dubratt
Dil Spitz
	MAINT-4455
Dimitrio Lewis
Dirk
Draconis Neurocam
	STORM-1259
Drew Dri
	VWR-19683
Drew Dwi
Drewan Keats
	VWR-28
	VWR-248
	VWR-412
	VWR-638
	VWR-660
Dusan Writer
Dylan Haskell
	VWR-72
Dzonatas Sol
	VWR-187
	VWR-198
	VWR-777
	VWR-878
	VWR-962
	VWR-975
	VWR-1061
	VWR-1062
	VWR-1704
	VWR-1705
	VWR-1729
	VWR-1812
Eddi Decosta
	SNOW-586
Eddy Stryker
	VWR-15
	VWR-23
	VWR-1468
	VWR-1475
Edgware Marker
Egehan Dryke
Ellla McMahon
Elric Anatine
Emma Portilo
Emmie Fairymeadow
EponymousDylan Ra
	VWR-1289
	VWR-1465
Eva Nowicka
	CT-324
	CT-352
Eva Rau
Evangelista Emerald
Faelon Swordthain
Farallon Greyskin
	VWR-2036
Feep Larsson
	VWR-447
	VWR-1314
	VWR-4444
Fiachra Lach
Flemming Congrejo
	CT-193
	CT-318
Flower Ducatillon
Fluf Fredriksson
	VWR-3450
Fremont Cunningham
	VWR-1147
FreeSL Aeon
Frenchimmo Sabra
Frontera Thor
Fury Rosewood
Gaberoonie Zanzibar
Ganymedes Costagravas
Geenz Spad
	STORM-1823
	STORM-1900
	STORM-1905
	NORSPEC-229
	BUG-226611
	BUG-226617
	BUG-226618
	BUG-226646
	BUG-226647
	BUG-226648
	OPEN-339
	BUG-226620
	OPEN-340
	OPEN-343
Gene Frostbite
GeneJ Composer
Geneko Nemeth
	CT-117
	VWR-11069
Gentle Heron
Gentle Welinder
gwampa Lomu
Giggles Littlebird
Gigs Taggart
	SVC-493
	VWR-6
	VWR-38
	VWR-71
	VWR-101
	VWR-166
	VWR-234
	VWR-315
	VWR-326
	VWR-442
	VWR-493
	VWR-1203
	VWR-1217
	VWR-1434
	VWR-1987
	VWR-2065
	VWR-2491
	VWR-2502
	VWR-2331
	VWR-5308
	VWR-8781
	VWR-8783
Ginko Bayliss
	VWR-4
Grady Echegaray
Grazer Kline
	VWR-1092
	VWR-2113
Gudmund Shepherd
	VWR-1594
	VWR-1873
Guni Greenstein
Gwyneth Llewelyn
Gypsy Tripsa
Hackshaven Harford
Ham Rambler
Hamncheese Omlet
	VWR-333
Han Shuffle
Hanglow Short
HappySmurf Papp
	CT-193
Harleen Gretzky
Hatzfeld Runo
Henri Beauchamp
	VWR-1320
	VWR-1406
	VWR-4157
herina Bode
Hikkoshi Sakai
	VWR-429
Hiro Sommambulist
	VWR-66
	VWR-67
	VWR-97
	VWR-100
	VWR-105
	VWR-118
	VWR-132
	VWR-136
	VWR-143
Hitomi Tiponi
	STORM-1741
	STORM-1862
	BUG-1067
Holger Gilruth
Horatio Freund
Hoze Menges
	VWR-255
Hydra Shaftoe
Hypatia Callisto
Hypatia Pickens
Ian Kas
	VWR-8780 (Russian localization)
	[NO JIRA] (Ukranian localization)
	CT-322
	CT-325
Identity Euler
Ima Mechanique
	OPEN-50
	OPEN-61
	OPEN-76
	STORM-959
	STORM-1175
	STORM-1708
	STORM-1831
	STORM-1832
	STORM-1855
	VWR-10791
	VWR-20553
	VWR-19213
    VWR-22401
    VWR-23739
	VWR-24766
	VWR-28065
Imnotgoing Sideways
Inma Rau
Innula Zenovka
Irene Muni
	CT-324
	CT-352
Iskar Ariantho
	VWR-1223
	VWR-11759
Iyoba Tarantal
Jacek Antonelli
	SNOW-388
	VWR-165
	VWR-188
	VWR-427
	VWR-597
	VWR-2054
	VWR-2448
	VWR-2896
	VWR-2947
	VWR-2948
	VWR-3605
	VWR-8617
Jack Abraham
Jagga Meredith
JB Kraft
	VWR-5283
	VWR-7802
Jennifer Boyle
Jeremy Marquez
Jessica Qin
Jinx Nordberg
Jo Bernandes
Jocial Sonnenkern
Joel Savard
Joghert LeSabre
	VWR-64
Jonathan Yap
	STORM-435
	STORM-523
	STORM-596
	STORM-615
	STORM-616
	STORM-643
	STORM-679
	STORM-723
	STORM-726
	STORM-737
	STORM-785
	STORM-812
	STORM-829
	STORM-844
	STORM-953
	STORM-954
	STORM-960
	STORM-869
	STORM-974
	STORM-975
	STORM-977
	STORM-979
	STORM-980
	STORM-1040
	VWR-17801
	VWR-24347
	STORM-975
	STORM-990
	STORM-1019
	STORM-844
	STORM-643
	STORM-1020
	STORM-1064
	STORM-960
	STORM-1101
	STORM-1108
	STORM-1094
	STORM-1077
	STORM-953
	STORM-1128
	STORM-956
	STORM-1095
	STORM-1236
	STORM-1259
	STORM-787
	STORM-1313
	STORM-899
	STORM-1273
	STORM-1276
	STORM-1462
	STORM-1459
	STORM-1297
	STORM-1522
	STORM-1567
	STORM-1572
	STORM-1574
	STORM-1579
	STORM-1638
	STORM-976
	STORM-1639
	STORM-910
	STORM-1653
	STORM-1642
	STORM-591
	STORM-1105
	STORM-1679
	STORM-1222
	STORM-1659
	STORM-1674
	STORM-1685
	STORM-1718
	STORM-1721
	STORM-1718
	STORM-1727
	STORM-1725
	STORM-1719
	STORM-1712
	STORM-1728
	STORM-1736
	STORM-1804
	STORM-1734
	STORM-1731
	STORM-653
	STORM-1737
	STORM-1733
	STORM-1741
	STORM-1790
	STORM-1795
	STORM-1788
	STORM-1803
	STORM-1795
	STORM-1799
	STORM-1796
	STORM-1807
	STORM-1812
	STORM-1820
	STORM-1839
	STORM-1842
	STORM-1808
	STORM-637
	STORM-1822
	STORM-1809
	STORM-1793
	STORM-1810
	STORM-68
	STORM-1838
	STORM-1892
	STORM-1894
	STORM-1860
	STORM-1852
	STORM-1870
	STORM-1872
	STORM-1858
	STORM-1862
	STORM-1918
	STORM-1915
	STORM-1929
	STORM-1953
	OPEN-161
	STORM-1953
	STORM-1957
	STORM-1993
	STORM-2017
	STORM-2007
	STORM-1980
	OPEN-113
	STORM-1975
	STORM-1982
	STORM-1975
	STORM-1987
	STORM-1982
	STORM-1992
	STORM-1989
	STORM-1987
	STORM-1986
	STORM-1981
	STORM-2015
	STORM-2031
	STORM-2030
	STORM-2034
	STORM-2018
	STORM-2082
	STORM-2086
	STORM-2085
	STORM-2088
	STORM-2094
	STORM-2099
	STORM-2091
	STORM-2092
	STORM-2100
	STORM-2104
	STORM-2142
	SL-10089
Kadah Coba
	STORM-1060
    STORM-1843
Jondan Lundquist
Joosten Briebers
    MAINT-7074
Josef Munster
Josette Windlow
Juilan Tripsa
Juro Kothari
Justin RiversRunRed
Kage Pixel
	VWR-11
Kagehi Kohn
Kaimen Takahe
Katharine Berry
	STORM-1900
    OPEN-149
	STORM-1940
    OPEN-149
	STORM-1941
Keklily Longfall
Ken Lavender
Ken March
	CT-245
Kestral Karas
Kerutsen Sellery
	VWR-1350
Khisme Nitely
Khyota Wulluf
	VWR-2085
	VWR-8885
	VWR-9256
	VWR-9966
Kimar Coba
Kithrak Kirkorian
Kitty Barnett
	VWR-19699
	STORM-288
	STORM-799
	STORM-800
	STORM-1001
	STORM-1175
	STORM-1905
    VWR-24217
	STORM-1804
	MAINT-5416
	MAINT-6041
	MAINT-6142
	MAINT-6144
	MAINT-6152
	MAINT-6153
	MAINT-6154
	MAINT-6568
	STORM-2149
	MAINT-7581
	MAINT-7081
Kolor Fall
Komiko Okamoto
Korvel Noh
Kunnis Basiat
	VWR-82
	VWR-102
Lance Corrimal
	STORM-1910
	VWR-25269
	STORM-2008
Latif Khalifa
	VWR-5370
leliel Mirihi
	STORM-1100
	STORM-1602
len Starship
Lisa Lowe
	CT-218
	CT-219
	CT-220
	CT-221
	CT-222
	CT-223
	CT-224
	CT-319
Lockhart Cordoso
	VWR-108
LSL Scientist
Lamorna Proctor
Lares Carter
Larry Pixel
Laurent Bechir
Leal Choche
Lenae Munz
Lexi Frua
Lillie Cordeaux
Lilly Zenovka
Lizzy Macarthur
Luban Yiyuan
Luc Starsider
Luminous Luminos
	STORM-959
Lunita Savira
Maccus McCullough
maciek marksman
	CT-86
Madison Blanc
Maggie Darwin
Magnus Balczo
	CT-138
Malarthi Behemoth
Mallory Destiny
Malwina Dollinger
	CT-138
Manx Wharton
march Korda
	SVC-1020
Marc Claridge
Marc2 Sands
Marianne McCann
Marine Kelley
    CHUIBUG-134
    STORM-281
    STORM-1910
MartinRJ Fayray
    STORM-1844
    STORM-1845
    STORM-1911
    STORM-1934
Matrice Laville
Matthew Anthony
Matthew Dowd
	VWR-1344
	VWR-1651
	VWR-1736
	VWR-1737
	VWR-1761
	VWR-2681
Matto Destiny
Maxim RiversRunRed
McCabe Maxsted
	SNOW-387
	VWR-1318
	VWR-4065
	VWR-4826
	VWR-6518
	VWR-7827
	VWR-7877
	VWR-7893
	VWR-8080
	VWR-8454
	VWR-8689
	VWR-9007
Medhue Simoni
Mel Vanbeeck
Melinda Latynina
Mencius Watts
Michelle2 Zenovka
    STORM-477
	VWR-2652
	VWR-2662
	VWR-2834
	VWR-3749
	VWR-4022
	VWR-4331
	VWR-4506
	VWR-4981
	VWR-5082
	VWR-5659
	VWR-7831
	VWR-8885
	VWR-8889
	VWR-8310
	VWR-9499
    STORM-1060
Michi Lumin
Midian Farspire
Miles Glaz
Mindy Mathy
Minerva Memel
Mitch Wagner
Mm Alder
	SNOW-376
	VWR-197
	VWR-3777
	VWR-4232
	VWR-4794
	VWR-13578
Mo Hax
Moon Metty
	STORM-2078
Mourna Biziou
Mr Greggan
	VWR-445
Nao Noe
naofan Teardrop
Naomah Beaumont
Nathiel Siamendes
Nber Medici
Neko Link
Netpat Igaly
Neutron Chesnokov
Newfie Pendragon
Nicholai Laviscu
Nicholaz Beresford
	VWR-132
	VWR-176
	VWR-193
	VWR-349
	VWR-353
	VWR-364
	VWR-374
	VWR-546
	VWR-691
	VWR-727
	VWR-793
	VWR-794
	VWR-802
	VWR-803
	VWR-804
	VWR-805
	VWR-807
	VWR-808
	VWR-809
	VWR-810
	VWR-823
	VWR-849
	VWR-856
	VWR-865
	VWR-869
	VWR-870
	VWR-871
	VWR-873
	VWR-908
	VWR-966
	VWR-1105
	VWR-1221
	VWR-1230
	VWR-1270
	VWR-1294
	VWR-1296
	VWR-1354
	VWR-1410
	VWR-1418
	VWR-1436
	VWR-1453
	VWR-1455
	VWR-1470
	VWR-1471
	VWR-1566
	VWR-1578
	VWR-1626
	VWR-1646
	VWR-1655
	VWR-1698
	VWR-1706
	VWR-1721
	VWR-1723
	VWR-1732
	VWR-1754
	VWR-1769
	VWR-1808
	VWR-1826
	VWR-1861
	VWR-1872
	VWR-1968
	VWR-2046
	VWR-2142
	VWR-2152
	VWR-2614
	VWR-2411
	VWR-2412
	VWR-2682
	VWR-2684
Nick Rhodes
Nicky Dasmijn
	MAINT-873
	MAINT-7541
	VWR-29228
	MAINT-1392
	MAINT-873
	SUN-72
	BUG-2432
	STORM-1935
	STORM-1936
	BUG-3605
	CHUIBUG-197
	OPEN-187
	STORM-1937
	OPEN-187
    STORM-2010
	STORM-2082
	MAINT-6665
	SL-10291
	SL-10293
	SL-11061
    SL-11072
Nicky Perian
	OPEN-1
	STORM-1087
	STORM-1090
	STORM-1828
    STORM-2080
Nicoladie Gymnast
NiranV Dean
    STORM-2040
    STORM-2042
    STORM-2043
    STORM-2044
    STORM-2045
    STORM-2046
    STORM-2047
    STORM-2048
    STORM-2049
    STORM-2050
    STORM-2051
    STORM-2052
    STORM-2057
    STORM-2058
    STORM-2059
    STORM-2060
    STORM-2061
    STORM-2063
    STORM-2065
    STORM-2066
    STORM-2068
    STORM-2073
    STORM-2076
    BUG-372
    BUG-1179
    BUG-6835
    BUG-6837
    BUG-6839
    BUG-6840
    BUG-6958
    BUG-7020
Nounouch Hapmouche
	VWR-238
Ollie Kubrick
Orenj Marat
Orion Delphis
Oryx Tempel
Parvati Silverweb
Patric Mills
	VWR-2645
Paul Churchill
	VWR-20
	VWR-493
	VWR-749
	VWR-1567
	VWR-1647
	VWR-1880
	VWR-2072
Paula Innis
	VWR-30
	VWR-293
	VWR-1049
	VWR-1562
Peekay Semyorka
	VWR-7
	VWR-19
	VWR-49
	VWR-79
Pell Smit
	MAINT-4323
	STORM-2069
	STORM-2070
	STORM-2071
	STORM-2072
Peter Lameth
	VWR-7331
PeterPunk Mooney
Pixel Gausman
Pixel Scientist
Pf Shan
	CT-225
	CT-226
	CT-227
	CT-228
	CT-229
	CT-230
	CT-231
	CT-321
	SNOW-422
Polo Gufler
Pounce Teazle
princess niven
	VWR-5733
	CT-85
	CT-320
	CT-352
Professor Noarlunga
Psi Merlin
Quantum Destiny
Questar Utu
Quicksilver Hermes
RAT Quan
Radio Signals
Ralf Setsuko
RedMokum Bravin
Renault Clio
	VWR-1976
resu Ampan
	SNOW-93
Revolution Perenti
Rezit Sideways
Rich Grainger
Ringo Tuxing
	CT-225
	CT-226
	CT-227
	CT-228
	CT-229
	CT-230
	CT-231
	CT-321
Riva
Robin Cornelius
	SNOW-108
	SNOW-204
	SNOW-287
	SNOW-484
	SNOW-504
	SNOW-506
	SNOW-507
	SNOW-511
	SNOW-512
	SNOW-514
	SNOW-520
	SNOW-585
	SNOW-599
	SNOW-747
	STORM-422
	STORM-591
	STORM-960
	STORM-1019
	STORM-1095
	STORM-1128
	STORM-1459
	VWR-2488
	VWR-9557
	VWR-10579
	VWR-11128
	VWR-12533
	VWR-12587
	VWR-12758
	VWR-12763
	VWR-12995
	VWR-20911
Rosco Teardrop
Rose Evans
Rudee Voom
RufusTT Horsefly
Ryozu Kojima
	VWR-53
	VWR-287
Sachi Vixen
Sahkolihaa Contepomi
	MATBUG-102
Saii Hallard
SaintLEOlions Zimer
Salahzar Stenvaag
	CT-225
	CT-226
	CT-227
	CT-228
	CT-229
	CT-230
	CT-231
	CT-321
Samm Larkham
Sammy Frederix
	VWR-6186
Sasy Scarborough
Satanello Miami
Satomi Ahn
	STORM-501
	STORM-229
	VWR-20553
	VWR-24502
Scrim Pinion
Scrippy Scofield
	VWR-3748
Seg Baphomet
	VWR-1475
	VWR-1525
	VWR-1585
	VWR-1586
	VWR-2662
	VWR-3206
	VWR-2488
Sergen Davies
	CT-225
	CT-226
	CT-227
	CT-228
	CT-229
	CT-230
	CT-231
	CT-321
SexySteven Morrisey
Shawn Kaufmat
	SNOW-240
Sheet Spotter
Shnurui Troughton
Shyotl Kuhr
	MAINT-1138
	MAINT-2334
	MAINT-6913
	STORM-2143
Siana Gearz
	STORM-960
	STORM-1088
	MAINT-1138
	MAINT-2334
sicarius Thorne
Sicarius Toxx
SignpostMarv Martin
	VWR-153
	VWR-154
	VWR-155
	VWR-218
	VWR-373
	VWR-8357
Simon Nolan
	VWR-409
Sini Nubalo
Sitearm Madonna
SLB Wirefly
Slee Mayo
    SEC-1075
snowy Sidran
Sovereign Engineer
    MAINT-2334
    OPEN-189
    STORM-1972
    STORM-2113
    OPEN-195
    OPEN-217
    OPEN-295
    MAINT-6107
    STORM-2107
    MAINT-6218
    MAINT-6913
    STORM-2143
    STORM-2148
    MAINT-7343
    SL-11079
    OPEN-343
SpacedOut Frye
	VWR-34
	VWR-45
	VWR-57
	VWR-94
	VWR-113
	VWR-121
	VWR-123
	VWR-130
	VWR-1823
Sporked Friis
	VWR-4903
Soupa Segura
Squirrel Wood
ST Mensing
Starshine Halasy
Stevex Janus
	VWR-1182
Stickman Ingmann
Still Defiant
	VWR-207
	VWR-227
	VWR-446
Strife Onizuka
	SVC-9
	VWR-14
	VWR-74
	VWR-85
	VWR-148
	WEB-164
	VWR-183
	VWR-2265
	VWR-4111
	SNOW-691
Sudane Erato
Synystyr Texan
Takeda Terrawyng
TankMaster Finesmith
	OPEN-140
	OPEN-142
	OPEN-154
	OPEN-295
	STORM-1100
	STORM-1258
	STORM-1602
	STORM-1868
	STORM-1950
    VWR-26622
	VWR-29224
Talamasca
Tali Rosca
Tayra Dagostino
	SNOW-517
	SNOW-543
	VWR-13947
TBBle Kurosawa
	VWR-938
	VWR-941
	VWR-942
	VWR-944
	VWR-945
	SNOW-543
	VWR-1891
	VWR-1892
Teardrops Fall
	VWR-5366
Techwolf Lupindo
	SNOW-92
	SNOW-592
	SNOW-649
	SNOW-650
	SNOW-651
	SNOW-654
	SNOW-687
	SNOW-680
	SNOW-681
	SNOW-685
	SNOW-690
	SNOW-746
	VWR-12385
	VWR-20893
	OPEN-161
Templar Merlin
tenebrous pau
	VWR-247
Tezcatlipoca Bisiani
Tharax Ferraris
	VWR-605
Thickbrick Sleaford
	SNOW-207
	SNOW-390
	SNOW-421
	SNOW-462
	SNOW-586
	SNOW-592
	SNOW-635
	SNOW-743
	VWR-7109
	VWR-9287
	VWR-13483
	VWR-13947
	VWR-24420
	STORM-956
	STORM-1147
	STORM-1325
Thraxis Epsilon
	SVC-371
	VWR-383
Tiel Stonecutter
tiamat bingyi
	CT-246
Tofu Buzzard
	CTS-411
	STORM-546
	VWR-24509
	SH-2477
	STORM-1684
	STORM-1819
Tony Kembia
Tonya Souther
	STORM-1905
	BUG-3875
	BUG-3968
	OPEN-345
Torben Trautman
TouchaHoney Perhaps
TraductoresAnonimos Alter
	CT-324
Trey Reanimator
TriloByte Zanzibar
	STORM-1100
Trinity Dechou
Trinity Dejavu
Tue Torok
	CT-68
	CT-69
	CT-70
	CT-72
	CT-73
	CT-74
Twisted Laws
	SNOW-352
	STORM-466
	STORM-467
	STORM-844
	STORM-643
	STORM-954
	STORM-1103
Unlikely Quintessa
UsikuFarasi Kanarik
Vadim Bigbear
	VWR-2681
Vaalith Jinn
    STORM-64
    MATBUG-8
Vector Hastings
	VWR-8726
Veritas Raymaker
Vex Streeter
	STORM-1642
Viaticus Speculaas
Vick Forcella
Villain Baroque
Vixen Heron
	VWR-2710
	CT-88
Vixie Durant
Void Singer
Watty Berkson
Westley Schridde
Westley Streeter
Whimsy Winx
Whirly Fizzle
	STORM-1895
	VWR-29543
	MAINT-873
	STORM-1930
	BUG-6659
	STORM-2078
Whoops Babii
	VWR-631
	VWR-1640
	VWR-3340
	SNOW-667
	VWR-4800
	VWR-4802
	VWR-4804
	VWR-4805
	VWR-4806
	VWR-4808
	VWR-4809
	VWR-4811
	VWR-4815
	VWR-4816
	VWR-4818
	VWR-5659
	VWR-8291
	VWR-8292
	VWR-8293
	VWR-8294
	VWR-8295
	VWR-8296
	VWR-8297
	VWR-8298
Winter Ventura
Wilton Lundquist
	VWR-7682
Wolf Loonie
	STORM-1868
WolfPup Lowenhar
	OPEN-1
	OPEN-37
	SNOW-622
	SNOW-772
	STORM-102
	STORM-103
	STORM-143
	STORM-236
	STORM-255
	STORM-256
	STORM-288
	STORM-535
	STORM-544
	STORM-654
	STORM-674
	STORM-776
	STORM-825
	STORM-859
	STORM-1098
	VWR-20741
	VWR-20933
Wundur Primbee
Xellessanova Zenith
	STORM-1793
Xiki Luik
xstorm Radek
YongYong Francois
Zak Westminster
Zai Lynch
	VWR-19505
    STORM-1902
Zana Kohime
Zaren Alexander
Zarkonnen Decosta
	VWR-253
Zeja Pyle
ZenMondo Wormser
Zi Ree
	SH-489
	VWR-423
	VWR-671
	VWR-682
	VWR-684
	VWR-9127
	VWR-1140
	VWR-24017
	VWR-25588
	STORM-1790
	STORM-1842
Zipherius Turas
	VWR-76
	VWR-77
Zoex Flanagan

